Understanding Fire Severity in California – Home
…
We should be worried about the observations that have missing data for the incident_type variable because what if they are not a fire incident. Hence, I made sure to check the incident_name manually to ensure all of the observations in our data set were only fire incidents.

Furthermore, since acres burned will be our response variable we must make sure we are only looking at fires that were already contained so that we know exactly how many acres were affected. Hence, the chunk below removes all the fire incidents that were still active as of May 2025. In this case, there were only three.

fire_data <- original_fire %>%
  filter(!is_active %in% c("Y"))

#Variable Selection

Now, let’s take a look at the first 30 rows in the original data set provided by CalFIRE and understand the variables we are working with:

head(original_fire, 30)

# A tibble: 30 × 23
   incident_name  incident_is_final incident_date_last_u…¹ incident_date_created
   <chr>          <chr>             <dttm>                 <dttm>               
 1 Bridge Fire    Y                 2018-01-09 13:46:00    2017-10-31 11:22:00  
 2 Pala Fire      Y                 2020-09-16 14:07:35    2009-05-24 14:56:00  
 3 River Fire     Y                 2022-10-24 11:39:23    2013-02-24 08:16:00  
 4 Fawnskin Fire  Y                 2013-04-22 09:00:00    2013-04-20 17:30:00  
 5 Gold Fire      Y                 2013-05-01 07:00:00    2013-04-30 12:59:00  
 6 Panther Fire   Y                 2022-10-24 11:40:03    2013-05-01 09:12:00  
 7 Silverado Fire Y                 2013-05-01 17:15:00    2013-04-30 23:44:00  
 8 Yellow Fire    Y                 2013-05-03 06:15:00    2013-05-01 02:01:00  
 9 Summit Fire    Y                 2022-10-24 11:40:42    2013-05-01 12:38:00  
10 Tres Pinos Fi… Y                 2013-05-03 18:45:00    2013-05-03 11:42:00  
# ℹ 20 more rows
# ℹ abbreviated name: ¹​incident_date_last_update
# ℹ 19 more variables: incident_administrative_unit <chr>,
#   incident_administrative_unit_url <lgl>, incident_county <chr>,
#   incident_location <chr>, incident_acres_burned <dbl>,
#   incident_containment <dbl>, incident_control <chr>,
#   incident_cooperating_agencies <chr>, incident_longitude <dbl>, …
…
Now, let’s change some of the variables names for :

fire_data <- fire_data %>%
  rename(
    name = incident_name,
    county = incident_county,
    severity = incident_acres_burned,
    date = incident_dateonly_created,
  )

Finally, let’s take a look at our updated and clean data set. We are now one step closer to perform our Analysis.

head(fire_data, 30)

# A tibble: 30 × 9
   name    county severity date        year month season multi_county is_complex
   <chr>   <chr>     <dbl> <date>     <dbl> <dbl> <chr>  <lgl>        <lgl>     
 1 Bridge… Shasta       37 2017-10-31  2017    10 Fall   FALSE        FALSE     
 2 Pala F… San D…      122 2009-05-24  2009     5 Spring FALSE        FALSE     
 3 River … Inyo        407 2013-02-24  2013     2 Winter FALSE        FALSE     
 4 Fawnsk… San B…       30 2013-04-20  2013     4 Spring FALSE        FALSE     
 5 Gold F… Madera      274 2013-04-30  2013     4 Spring FALSE        FALSE     
 6 Panthe… Tehama     6896 2013-05-01  2013     5 Spring FALSE        FALSE     
 7 Silver… Napa         75 2013-04-30  2013     4 Spring FALSE        FALSE     
 8 Yellow… Sonoma      125 2013-05-01  2013     5 Spring FALSE        FALSE     
 9 Summit… River…     2956 2013-05-01  2013     5 Spring FALSE        FALSE     
10 Tres P… San B…      354 2013-05-03  2013     5 Spring FALSE        FALSE     
# ℹ 20 more rows
…
